[
	{"state_code":"AYAR", "name":"Pathein", "locale_name":"Pathein","code":"PTH"},
	{"state_code":"AYAR", "name":"Kangyidaut", "locale_name":"Kangyidaut","code":"KGD"},
	{"state_code":"AYAR", "name":"Thabaung", "locale_name":"Thabaung","code":"TBG"},
	{"state_code":"AYAR", "name":"Ngapudaw", "locale_name":"Ngapudaw","code":"NGD"},
	{"state_code":"AYAR", "name":"Haigyi Island", "locale_name":"Haigyi Island","code":"HGI"},
	{"state_code":"AYAR", "name":"Kyonpyaw", "locale_name":"Kyonpyaw","code":"KPY"},
	{"state_code":"AYAR", "name":"Yekyi", "locale_name":"Yekyi","code":"YKI"},
	{"state_code":"AYAR", "name":"Kyaunggon", "locale_name":"Kyaunggon","code":"KGG"},
	{"state_code":"AYAR", "name":"Hinthada", "locale_name":"Hinthada","code":"HTD"},
	{"state_code":"AYAR", "name":"Zalun", "locale_name":"Zalun","code":"ZLN"},
	{"state_code":"AYAR", "name":"Lemyetha", "locale_name":"Lemyetha","code":"LYT"},
	{"state_code":"AYAR", "name":"Myan Aung", "locale_name":"Myan Aung","code":"MNA"},
	{"state_code":"AYAR", "name":"Kanaung", "locale_name":"Kanaung","code":"KNA"},
	{"state_code":"AYAR", "name":"Kyangin", "locale_name":"Kyangin","code":"KGN"},
	{"state_code":"AYAR", "name":"Ingapu", "locale_name":"Ingapu","code":"IGP"},
	{"state_code":"AYAR", "name":"Myaung Mya", "locale_name":"Myaung Mya","code":"MMY"},
	{"state_code":"AYAR", "name":"Einme", "locale_name":"Einme","code":"EME"},
	{"state_code":"AYAR", "name":"Labutta", "locale_name":"Labutta","code":"LBT"},
	{"state_code":"AYAR", "name":"Wakema", "locale_name":"Wakema","code":"WKM"},
	{"state_code":"AYAR", "name":"Mawlamyinegyun", "locale_name":"Mawlamyinegyun","code":"MLG"},
	{"state_code":"AYAR", "name":"Maubin", "locale_name":"Maubin","code":"MBN"},
	{"state_code":"AYAR", "name":"Pantanaw", "locale_name":"Pantanaw","code":"PTW"},
	{"state_code":"AYAR", "name":"Nyaungdon", "locale_name":"Nyaungdon","code":"NAD"},
	{"state_code":"AYAR", "name":"Danubyu", "locale_name":"Danubyu","code":"DNU"},
	{"state_code":"AYAR", "name":"Pyapon", "locale_name":"Pyapon","code":"PPN"},
	{"state_code":"AYAR", "name":"Bogale", "locale_name":"Bogale","code":"BGL"},
	{"state_code":"AYAR", "name":"Kyaiklat", "locale_name":"Kyaiklat","code":"KKL"},	
	{"state_code":"AYAR", "name":"Ngwe Saung", "locale_name":"Ngwe Saung","code":"NSG"},
	{"state_code":"AYAR", "name":"Mgayokekaung", "locale_name":"Mgayokekaung","code":"MYK"},
	{"state_code":"AYAR", "name":"Chaung Tha", "locale_name":"Chaung Tha","code":"CHT"},
	{"state_code":"AYAR", "name":"Ngathinechaung", "locale_name":"Ngathinechaung","code":"NGC"},
	{"state_code":"AYAR", "name":"Ahtaung", "locale_name":"Ahtaung","code":"AHT"},
	{"state_code":"AYAR", "name":"Lthapyu", "locale_name":"Lthapyu","code":"LPY"},
	{"state_code":"AYAR", "name":"Shwe Laung", "locale_name":"Shwe Laung","code":"SHL"},
	{"state_code":"AYAR", "name":"Pyinsalu", "locale_name":"Pyinsalu","code":"PYS"},
	{"state_code":"AYAR", "name":"Kyonmange", "locale_name":"Kyonmange","code":"KYM"},
	{"state_code":"AYAR", "name":"Dedeye", "locale_name":"Dedeye","code":"DYE"},
	{"state_code":"AYAR", "name":"Ahmar", "locale_name":"Ahmar","code":"AMR"},
	
	{"state_code":"BGOR", "name":"Bago", "locale_name":"Bago","code":"BGO"},
	{"state_code":"BGOR", "name":"Thanatpin", "locale_name":"Thanatpin","code":"TPN"},
	{"state_code":"BGOR", "name":"Kawa", "locale_name":"Kawa","code":"KWA"},
	{"state_code":"BGOR", "name":"Waw", "locale_name":"Waw","code":"WAW"},
	{"state_code":"BGOR", "name":"Nyaunglebin", "locale_name":"Nyaunglebin","code":"NBN"},
	{"state_code":"BGOR", "name":"Madauk", "locale_name":"Madauk","code":"MDK"},
	{"state_code":"BGOR", "name":"Pyutaza", "locale_name":"Pyutaza","code":"PZA"},
	{"state_code":"BGOR", "name":"Kyauktaga", "locale_name":"Kyauktaga","code":"KGA"},
	{"state_code":"BGOR", "name":"Pennwegone", "locale_name":"Pennwegone","code":"PGE"},
	{"state_code":"BGOR", "name":"Daik-U", "locale_name":"Daik-U","code":"DKU"},
	{"state_code":"BGOR", "name":"Shwegyin", "locale_name":"Shwegyin","code":"SYN"},
	{"state_code":"BGOR", "name":"Taunggoo", "locale_name":"Taunggoo","code":"TGO"},
	{"state_code":"BGOR", "name":"Kututmatyi", "locale_name":"Kututmatyi","code":"KMI"},
	{"state_code":"BGOR", "name":"Yedashe", "locale_name":"Yedashe","code":"YDE"},
	{"state_code":"BGOR", "name":"Kyaukkyi", "locale_name":"Kyaukkyi","code":"KYI"},
	{"state_code":"BGOR", "name":"Phyu", "locale_name":"Phyu","code":"PYU"},
	{"state_code":"BGOR", "name":"Paukkhaung", "locale_name":"Paukkhaung","code":"PKG"},
	{"state_code":"BGOR", "name":"Pyay", "locale_name":"Pyay","code":"PYY"},
	{"state_code":"BGOR", "name":"Paukkhaung", "locale_name":"Paukkhaung","code":"PHG"},
	{"state_code":"BGOR", "name":"Padaung", "locale_name":"Padaung","code":"PAG"},
	{"state_code":"BGOR", "name":"Paungde", "locale_name":"Paungde","code":"PDE"},
	{"state_code":"BGOR", "name":"Thegon", "locale_name":"Thegon","code":"TGN"},
	{"state_code":"BGOR", "name":"Shwedaung", "locale_name":"Shwedaung","code":"SDG"},
	{"state_code":"BGOR", "name":"Tharrawaddy", "locale_name":"Tharrawaddy","code":"TRD"},
	{"state_code":"BGOR", "name":"Lepadan", "locale_name":"Lepadan","code":"LDN"},
	{"state_code":"BGOR", "name":"Minhla", "locale_name":"Minhla","code":"MLA"},
	{"state_code":"BGOR", "name":"Okpho", "locale_name":"Okpho","code":"OHO"},
	{"state_code":"BGOR", "name":"Zigon", "locale_name":"Zigon","code":"ZGN"},
	{"state_code":"BGOR", "name":"Mattalin", "locale_name":"Mattalin","code":"MLN"},
	{"state_code":"BGOR", "name":"Monyo", "locale_name":"Monyo","code":"MYO"},	
	{"state_code":"BGOR", "name":"Gyobingauk", "locale_name":"Gyobingauk","code":"GGK"},
	
	{"state_code":"CHNS", "name":"Tedim", "locale_name":"Tedim","code":"TIM"},
	{"state_code":"CHNS", "name":"Ton Zang", "locale_name":"Htonzan","code":"HZN"},
	{"state_code":"CHNS", "name":"Falam", "locale_name":"Falam","code":"FLM"},
	{"state_code":"CHNS", "name":"Hakha", "locale_name":"Hakha","code":"HKA"},
	{"state_code":"CHNS", "name":"Thantlang", "locale_name":"Htantlang","code":"HLG"},
	{"state_code":"CHNS", "name":"Kanpetiet", "locale_name":"Kanpetiet","code":"KPT"},
	{"state_code":"CHNS", "name":"Matupi", "locale_name":"Matupi","code":"MTP"},
	{"state_code":"CHNS", "name":"Mindat", "locale_name":"Mindat","code":"MDT"},
	{"state_code":"CHNS", "name":"Paletwa", "locale_name":"Paletwa","code":"PTA"},
	{"state_code":"CHNS", "name":"Cikha", "locale_name":"Cikha","code":"CKA"},
	{"state_code":"CHNS", "name":"Rih Khawdar", "locale_name":"Rin Khawdar","code":"RKA"},
	{"state_code":"CHNS", "name":"Razua", "locale_name":"Yay Zwar","code":"YZR"},
	{"state_code":"CHNS", "name":"Sami", "locale_name":"Sami","code":"SMI"},
	
	{"state_code":"KCHS", "name":"Myitkyina", "locale_name":"Myitkyina","code":"MKA"},
	{"state_code":"KCHS", "name":"Bhamo", "locale_name":"Bhamo","code":"BMO"},
	{"state_code":"KCHS", "name":"Bharmo", "locale_name":"Bharmo","code":"BRO"},
	{"state_code":"KCHS", "name":"Chipwi", "locale_name":"Chipwi","code":"CWI"},
	{"state_code":"KCHS", "name":"Hpakant", "locale_name":"Hpakant","code":"HKT"},
	{"state_code":"KCHS", "name":"Hopin", "locale_name":"Hopin","code":"HBN"},
	{"state_code":"KCHS", "name":"Hsinbo", "locale_name":"Hsinbo","code":"HBO"},
	{"state_code":"KCHS", "name":"Hsawlaw", "locale_name":"Hsawlaw","code":"HSW"},
	{"state_code":"KCHS", "name":"Injangyang", "locale_name":"Injangyang","code":"IGG"},
	{"state_code":"KCHS", "name":"Kamaing", "locale_name":"Kamaing","code":"KIG"},
	{"state_code":"KCHS", "name":"Kawnglanghpu", "locale_name":"Kawnglanghpu","code":"KGF"},
	{"state_code":"KCHS", "name":"Lweje", "locale_name":"Lweje","code":"LWE"},
	{"state_code":"KCHS", "name":"Machanbaw", "locale_name":"Machanbaw","code":"MCB"},
	{"state_code":"KCHS", "name":"Mansi", "locale_name":"Mansi","code":"MSI"},
	{"state_code":"KCHS", "name":"Momauk", "locale_name":"Momauk","code":"MAK"},
	{"state_code":"KCHS", "name":"Mogaung", "locale_name":"Mogaung","code":"MGG"},
	{"state_code":"KCHS", "name":"Mohnyin", "locale_name":"Mohnyin","code":"MYI"},
	{"state_code":"KCHS", "name":"Nogmung", "locale_name":"Nogmung","code":"NMG"},
	{"state_code":"KCHS", "name":"Pannadin", "locale_name":"Pannadin","code":"PDN"},
	{"state_code":"KCHS", "name":"Putao", "locale_name":"Putao","code":"PTO"},
	{"state_code":"KCHS", "name":"Shwegu", "locale_name":"Shwegu","code":"SGU"},
	{"state_code":"KCHS", "name":"Sumprabum", "locale_name":"Sumprabum","code":"SBM"},
	{"state_code":"KCHS", "name":"Tanai", "locale_name":"Tanai","code":"TAI"},
	{"state_code":"KCHS", "name":"Tsawlaw", "locale_name":"Tsawlaw","code":"TLW"},
	{"state_code":"KCHS", "name":"Waingmaw", "locale_name":"Waingmaw","code":"WMW"},
	{"state_code":"KCHS", "name":"Ywathit", "locale_name":"Ywathit","code":"YAT"},
	
	{"state_code":"KYHS", "name":"Loikaw", "locale_name":"Loikaw","code":"LKW"},
	{"state_code":"KYHS", "name":"Demawso", "locale_name":"Demawso","code":"DSO"},
	{"state_code":"KYHS", "name":"Pruhso", "locale_name":"Pruhso","code":"PSO"},
	{"state_code":"KYHS", "name":"Shadaw", "locale_name":"Shadaw","code":"SDW"},
	{"state_code":"KYHS", "name":"Bawlakha", "locale_name":"Bawlakha","code":"BKA"},
	{"state_code":"KYHS", "name":"Hpasawng", "locale_name":"Hpasawng","code":"HSG"},
	{"state_code":"KYHS", "name":"Maisal", "locale_name":"Maisal","code":"MSL"},
	
	{"state_code":"KYNS", "name":"Hpa-an", "locale_name":"Hpa-an","code":"HAN"},
	{"state_code":"KYNS", "name":"Hlaingbwe", "locale_name":"Hlaingbwe","code":"HWE"},
	{"state_code":"KYNS", "name":"Papun", "locale_name":"Papun","code":"PUN"},
	{"state_code":"KYNS", "name":"Thandang", "locale_name":"Thandang","code":"TDG"},
	{"state_code":"KYNS", "name":"Thandanggyi", "locale_name":"Thandanggyi","code":"TGI"},
	{"state_code":"KYNS", "name":"Myawaddy", "locale_name":"Myawaddy","code":"MWD"},
	{"state_code":"KYNS", "name":"Kawkareik", "locale_name":"Kawkareik","code":"KKR"},
	{"state_code":"KYNS", "name":"Kyeikdon", "locale_name":"Kyeikdon","code":"KDN"},
	{"state_code":"KYNS", "name":"Kyain Seikgyi", "locale_name":"Kyain Seikgyi","code":"KSG"},
	{"state_code":"KYNS", "name":"Payathonsu", "locale_name":"Payathonsu","code":"PTS"},
	
	{"state_code":"MGWY", "name":"Magway", "locale_name":"Magway","code":"MGY"},
	{"state_code":"MGWY", "name":"Allanmyo", "locale_name":"Allanmyo","code":"AYO"},
	{"state_code":"MGWY", "name":"Chauck", "locale_name":"Chauck","code":"CCK"},
	{"state_code":"MGWY", "name":"Gangaw", "locale_name":"Gangaw","code":"GGW"},
	{"state_code":"MGWY", "name":"Kamma", "locale_name":"Kamma","code":"KMA"},
	{"state_code":"MGWY", "name":"Minbu", "locale_name":"Minbu","code":"MBU"},
	{"state_code":"MGWY", "name":"Mindon", "locale_name":"Mindon","code":"MDN"},
	{"state_code":"MGWY", "name":"Minhla", "locale_name":"Minhla","code":"MHA"},
	{"state_code":"MGWY", "name":"Myaing", "locale_name":"Myaing","code":"MIG"},
	{"state_code":"MGWY", "name":"Myothit", "locale_name":"Myothit","code":"MYT"},
	{"state_code":"MGWY", "name":"Natmauk", "locale_name":"Natmauk","code":"NUK"},
	{"state_code":"MGWY", "name":"Ngape", "locale_name":"Ngape","code":"NPE"},
	{"state_code":"MGWY", "name":"Pakokku", "locale_name":"Pakokku","code":"PKU"},
	{"state_code":"MGWY", "name":"Pauk", "locale_name":"Pauk","code":"PUK"},
	{"state_code":"MGWY", "name":"Pwintbyu", "locale_name":"Pwintbyu","code":"PBU"},
	{"state_code":"MGWY", "name":"Sagu", "locale_name":"Sagu","code":"SGU"},
	{"state_code":"MGWY", "name":"Salin", "locale_name":"Salin","code":"SLN"},
	{"state_code":"MGWY", "name":"Saw", "locale_name":"Saw","code":"SAW"},
	{"state_code":"MGWY", "name":"Seikphyu", "locale_name":"Seikphyu","code":"SPU"},
	{"state_code":"MGWY", "name":"Sidoktaya", "locale_name":"Sidoktaya","code":"SKA"},
	{"state_code":"MGWY", "name":"Sinbyugyun", "locale_name":"Sinbyugyun","code":"SBN"},
	{"state_code":"MGWY", "name":"Taungdwingyi", "locale_name":"Taungdwingyi","code":"TDI"},
	{"state_code":"MGWY", "name":"Thayet", "locale_name":"Thayet","code":"TET"},
	{"state_code":"MGWY", "name":"Tilin", "locale_name":"Tilin","code":"TLN"},
	{"state_code":"MGWY", "name":"Yenangyaung", "locale_name":"Yenangyaung","code":"YAG"},
	{"state_code":"MGWY", "name":"Yesagyo", "locale_name":"Yesagyo","code":"YGO"},
	
	{"state_code":"MDYR", "name":"Mandalay", "locale_name":"Mandalay","code":"MDY"},
	{"state_code":"MDYR", "name":"Meiktila", "locale_name":"Meiktila","code":"MKL"},
	{"state_code":"MDYR", "name":"Amarapura", "locale_name":"Amarapura","code":"APA"},
	
	
	{"state_code":"MONS", "name":"Mawlamyaing", "locale_name":"Mawlamyaing","code":"MLG"},
	{"state_code":"MONS", "name":"Bilin", "locale_name":"Bilin","code":"BLN"},
	{"state_code":"MONS", "name":"Kyaikmaraw", "locale_name":"Kyaikmaraw","code":"KRW"},
	{"state_code":"MONS", "name":"Chaungzon", "locale_name":"Chaungzon","code":"CZN"},
	{"state_code":"MONS", "name":"Thanbyuzayat", "locale_name":"Thanbyuzayat","code":"TZT"},
	{"state_code":"MONS", "name":"Kyaikkami", "locale_name":"Kyaikkami","code":"KMI"},
	{"state_code":"MONS", "name":"Mudon", "locale_name":"Mudon","code":"MDN"},
	{"state_code":"MONS", "name":"Ye", "locale_name":"Ye","code":"YEC"},
	{"state_code":"MONS", "name":"Thaton", "locale_name":"Thaton","code":"TTN"},
	{"state_code":"MONS", "name":"Paung", "locale_name":"Paung","code":"PNG"},
	{"state_code":"MONS", "name":"Kyaikto", "locale_name":"Kyaikto","code":"KYO"},
	{"state_code":"MONS", "name":"Mottama", "locale_name":"Mottama","code":"MMA"},
	
	{"state_code":"RKHR", "name":"Sittwe", "locale_name":"Sittwe","code":"STW"},
	{"state_code":"RKHR", "name":"Ann", "locale_name":"Ann","code":"ANN"},
	{"state_code":"RKHR", "name":"Buthidaung", "locale_name":"Buthidaung","code":"BUD"},
	{"state_code":"RKHR", "name":"Dalet", "locale_name":"Dalet","code":"DLT"},
	{"state_code":"RKHR", "name":"Gwa", "locale_name":"Gwa","code":"GWA"},
	{"state_code":"RKHR", "name":"Kyaukpyu", "locale_name":"Kyaukpyu","code":"KYU"},
	{"state_code":"RKHR", "name":"Kyauktaw", "locale_name":"Kyauktaw","code":"KTW"},
	{"state_code":"RKHR", "name":"Kyeintali", "locale_name":"Kyeintali","code":"KLI"},
	{"state_code":"RKHR", "name":"Manaung", "locale_name":"Manaung","code":"MUG"},
	{"state_code":"RKHR", "name":"Maungdaw", "locale_name":"Maungdaw","code":"MDW"},
	{"state_code":"RKHR", "name":"Minbya", "locale_name":"Minbya","code":"MBA"},
	{"state_code":"RKHR", "name":"Mrauk-U", "locale_name":"Mrauk-U","code":"MKU"},
	{"state_code":"RKHR", "name":"Myaungbwe", "locale_name":"Myaungbwe","code":"MBE"},
	{"state_code":"RKHR", "name":"Myebon", "locale_name":"Myebon","code":"MYB"},
	{"state_code":"RKHR", "name":"Ngapali", "locale_name":"Ngapali","code":"NGA"},
	{"state_code":"RKHR", "name":"Pauktaw", "locale_name":"Pauktaw","code":"PTW"},
	{"state_code":"RKHR", "name":"Ponnagyun", "locale_name":"Ponnagyun","code":"PYN"},
	{"state_code":"RKHR", "name":"Ramree", "locale_name":"Ramree","code":"REE"},
	{"state_code":"RKHR", "name":"Rathedaung", "locale_name":"Rathedaung","code":"RDN"},
	{"state_code":"RKHR", "name":"Thandwe", "locale_name":"Thandwe","code":"TWE"},
	{"state_code":"RKHR", "name":"Toungup", "locale_name":"Toungup","code":"TUP"},
	
	{"state_code":"SHNR", "name":"Aungban", "locale_name":"Aungban","code":"ABN"},
	{"state_code":"SHNR", "name":"Ayetharyar", "locale_name":"Ayetharyar","code":"AYR"},
	{"state_code":"SHNR", "name":"Chinshwehaw", "locale_name":"Chinshwehaw","code":"CHW"},
	{"state_code":"SHNR", "name":"Hong Pai", "locale_name":"Hong Pai","code":"HPI"},
	{"state_code":"SHNR", "name":"Hopang", "locale_name":"Hopang","code":"HAG"},
	{"state_code":"SHNR", "name":"Hopong", "locale_name":"Hopong","code":"HOG"},
	{"state_code":"SHNR", "name":"Hseni", "locale_name":"Hseni","code":"SNI"},
	{"state_code":"SHNR", "name":"Hsi Hseng", "locale_name":"Hsi Hseng","code":"SIG"},
	{"state_code":"SHNR", "name":"Hsipaw", "locale_name":"Hsipaw","code":"PAW"},
	{"state_code":"SHNR", "name":"Kalaw", "locale_name":"Kalaw","code":"KLW"},
	{"state_code":"SHNR", "name":"Kengtong", "locale_name":"Kengtong","code":"KTG"},
	{"state_code":"SHNR", "name":"Kunhing", "locale_name":"Kunhing","code":"KNG"},
	{"state_code":"SHNR", "name":"Kunlong", "locale_name":"Kunlong","code":"KLG"},
	{"state_code":"SHNR", "name":"Kutkai", "locale_name":"Kutkai","code":"KAI"},
	{"state_code":"SHNR", "name":"Kyaukme", "locale_name":"Kyaukme","code":"KME"},
	{"state_code":"SHNR", "name":"Kyethi", "locale_name":"Kyethi","code":"KTI"},
	{"state_code":"SHNR", "name":"Lai-Hka", "locale_name":"Lai-Hka","code":"HKA"},
	{"state_code":"SHNR", "name":"Langkho", "locale_name":"Langkho","code":"LHO"},
	{"state_code":"SHNR", "name":"Lashio", "locale_name":"Lashio","code":"LIO"},
	{"state_code":"SHNR", "name":"Lawksawk", "locale_name":"Lawksawk","code":"LWK"},
	{"state_code":"SHNR", "name":"Loilen", "locale_name":"Loilen","code":"LEN"},
	{"state_code":"SHNR", "name":"Laukkaing", "locale_name":"Laukkaing","code":"LKK"},
	{"state_code":"SHNR", "name":"Mabein", "locale_name":"Mabein","code":"MBIN"},
	{"state_code":"SHNR", "name":"Mantong", "locale_name":"Mantong","code":"MTG"},
	{"state_code":"SHNR", "name":"Mawkmai", "locale_name":"Mawkmai","code":"MKI"},
	{"state_code":"SHNR", "name":"Mong Hpayak", "locale_name":"Mong Hpayak","code":"MHK"},
	{"state_code":"SHNR", "name":"Mong Hsu", "locale_name":"Mong Hsu","code":"MHS"},
	{"state_code":"SHNR", "name":"Mong Khet", "locale_name":"Mong Khet","code":"MKT"},
	{"state_code":"SHNR", "name":"Mong Kung", "locale_name":"Mong Kung","code":"MKG"},
	{"state_code":"SHNR", "name":"Mong Nai", "locale_name":"Mong Nai","code":"MNI"},
	{"state_code":"SHNR", "name":"Mong Pan", "locale_name":"Mong Pan","code":"MPN"},
	{"state_code":"SHNR", "name":"Mong Ping", "locale_name":"Mong Ping","code":"MPI"},
	{"state_code":"SHNR", "name":"Mong Tong", "locale_name":"Mong Tong","code":"MTG"},
	{"state_code":"SHNR", "name":"Mong Yang", "locale_name":"Mong Yang","code":"MYG"},
	{"state_code":"SHNR", "name":"Mong Yawng", "locale_name":"Mong Yawng","code":"MWG"},
	{"state_code":"SHNR", "name":"Mong Hsat", "locale_name":"Mong Hsat","code":"MST"},
	{"state_code":"SHNR", "name":"Mongko", "locale_name":"Mongko","code":"MKO"},
	{"state_code":"SHNR", "name":"Mongmit", "locale_name":"Mongmit","code":"MMT"},
	{"state_code":"SHNR", "name":"Mongyai", "locale_name":"Mongyai","code":"MAI"},
	{"state_code":"SHNR", "name":"Mu Se", "locale_name":"Mu Se","code":"MSE"},
	{"state_code":"SHNR", "name":"Namhsan", "locale_name":"Namhsan","code":"NSN"},
	{"state_code":"SHNR", "name":"Namtu", "locale_name":"Namtu","code":"NTU"},
	{"state_code":"SHNR", "name":"Nanhkan", "locale_name":"Nanhkan","code":"NKN"},
	{"state_code":"SHNR", "name":"Nansang", "locale_name":"Nansang","code":"NNG"},
	{"state_code":"SHNR", "name":"Nawnghkio", "locale_name":"Nawnghkio","code":"NKO"},
	{"state_code":"SHNR", "name":"Nyaungshwe", "locale_name":"Nyaungshwe","code":"NWE"},
	{"state_code":"SHNR", "name":"Pang Long", "locale_name":"Pang Long","code":"PLG"},
	{"state_code":"SHNR", "name":"Pekon", "locale_name":"Pekon","code":"PKN"},
	{"state_code":"SHNR", "name":"Pindaya", "locale_name":"Pindaya","code":"PDA"},
	{"state_code":"SHNR", "name":"Pinlaung", "locale_name":"Pinlaung","code":"PIG"},
	{"state_code":"SHNR", "name":"Tangyan", "locale_name":"Tangyan","code":"TYN"},
	{"state_code":"SHNR", "name":"Taunggyi", "locale_name":"Taunggyi","code":"TGI"},
	{"state_code":"SHNR", "name":"Techilelk", "locale_name":"Techilelk","code":"TCK"},
	{"state_code":"SHNR", "name":"Ywangan", "locale_name":"Ywangan","code":"TGN"},
	
	{"state_code":"SGGR", "name":"Ayadaw", "locale_name":"Ayadaw","code":"ADW"},
	{"state_code":"SGGR", "name":"Banmuak", "locale_name":"Banmuak","code":"BMK"},
	{"state_code":"SGGR", "name":"Budalin", "locale_name":"Budalin","code":"BDL"},
	{"state_code":"SGGR", "name":"Chaung-U", "locale_name":"Chaung-U","code":"CGU"},
	{"state_code":"SGGR", "name":"Dabayin", "locale_name":"Dabayin","code":"DYI"},
	{"state_code":"SGGR", "name":"Hkamti", "locale_name":"Hkamti","code":"HKI"},
	{"state_code":"SGGR", "name":"Homalin", "locale_name":"Homalin","code":"HLN"},
	{"state_code":"SGGR", "name":"Htigyaing", "locale_name":"Htigyaing","code":"HYI"},
	{"state_code":"SGGR", "name":"Indaw", "locale_name":"Indaw","code":"IDW"},
	{"state_code":"SGGR", "name":"Kalaymyo", "locale_name":"Kalaymyo","code":"KMO"},
	{"state_code":"SGGR", "name":"Kalewa", "locale_name":"Kalewa","code":"KLA"},
	{"state_code":"SGGR", "name":"Kanbalu", "locale_name":"Kanbalu","code":"KBU"},
	{"state_code":"SGGR", "name":"Kani", "locale_name":"Kani","code":"KNI"},
	{"state_code":"SGGR", "name":"Katha", "locale_name":"Katha","code":"KHA"},
	{"state_code":"SGGR", "name":"Kawlin", "locale_name":"Kawlin","code":"KIN"},
	{"state_code":"SGGR", "name":"Khin Oo", "locale_name":"Khin Oo","code":"KOO"},
	{"state_code":"SGGR", "name":"Kyadet", "locale_name":"Kyadet","code":"KDT"},
	{"state_code":"SGGR", "name":"Kyunhla", "locale_name":"Kyunhla","code":"KUA"},
	{"state_code":"SGGR", "name":"Mawlaik", "locale_name":"Mawlaik","code":"MIK"},
	{"state_code":"SGGR", "name":"Mingin", "locale_name":"Mingin","code":"MGN"},
	{"state_code":"SGGR", "name":"Monywa", "locale_name":"Monywa","code":"MWA"},
	{"state_code":"SGGR", "name":"Myaung", "locale_name":"Myaung","code":"MAU"},
	{"state_code":"SGGR", "name":"Myinmu", "locale_name":"Myinmu","code":"NMU"},
	{"state_code":"SGGR", "name":"Pale", "locale_name":"Pale","code":"PLE"},
	{"state_code":"SGGR", "name":"Paungbyin", "locale_name":"Paungbyin","code":"PBY"},
	{"state_code":"SGGR", "name":"Pinlebu", "locale_name":"Pinlebu","code":"PNU"},
	{"state_code":"SGGR", "name":"Sagaing", "locale_name":"Sagaing","code":"SGG"},
	{"state_code":"SGGR", "name":"Salingyi", "locale_name":"Salingyi","code":"SGI"},
	{"state_code":"SGGR", "name":"Shwebo", "locale_name":"Shwebo","code":"SBO"},
	{"state_code":"SGGR", "name":"Tamu", "locale_name":"Tamu","code":"TMU"},
	{"state_code":"SGGR", "name":"Tantsal", "locale_name":"Tantsal","code":"TAL"},
	{"state_code":"SGGR", "name":"Wetlet", "locale_name":"Wetlet","code":"WET"},
	{"state_code":"SGGR", "name":"Wuntho", "locale_name":"Wuntho","code":"WHO"},
	{"state_code":"SGGR", "name":"Yae U", "locale_name":"Yae U","code":"YAE"},
	{"state_code":"SGGR", "name":"Yinmabin", "locale_name":"Yinmabin","code":"YIN"},
	{"state_code":"SGGR", "name":"Mungnii", "locale_name":"Mungnii","code":"MII"},
	
	{"state_code":"TNTR", "name":"Dawei", "locale_name":"Dawei","code":"DWI"},
	{"state_code":"TNTR", "name":"Launglon", "locale_name":"Launglon","code":"LON"},
	{"state_code":"TNTR", "name":"Thayetchaung", "locale_name":"Thayetchaung","code":"TCG"},
	{"state_code":"TNTR", "name":"Yebyu", "locale_name":"Yebyu","code":"YYU"},
	{"state_code":"TNTR", "name":"Myeik", "locale_name":"Myeik","code":"MEK"},
	{"state_code":"TNTR", "name":"Kyunsu", "locale_name":"Kyunsu","code":"KSU"},
	{"state_code":"TNTR", "name":"Palaw", "locale_name":"Palaw","code":"PLW"},
	{"state_code":"TNTR", "name":"Taninthayi", "locale_name":"Taninthayi","code":"TYI"},
	{"state_code":"TNTR", "name":"Kawthoung", "locale_name":"Kawthoung","code":"KHG"},
	{"state_code":"TNTR", "name":"Bokpyin", "locale_name":"Bokpyin","code":"BIN"},
	
	{"state_code":"YGNR", "name":"Htaukkyant", "locale_name":"Htaukkyant","code":"HKK"},
	{"state_code":"YGNR", "name":"Hmawbi", "locale_name":"Hmawbi","code":"HBI"},
	{"state_code":"YGNR", "name":"Hlegu", "locale_name":"Hlegu","code":"HGU"},
	{"state_code":"YGNR", "name":"Taikgyi", "locale_name":"Taikgyi","code":"TYI"},
	{"state_code":"YGNR", "name":"Okkan", "locale_name":"Okkan","code":"OKN"},
	{"state_code":"YGNR", "name":"Apyauk", "locale_name":"Apyauk","code":"AUK"},
	{"state_code":"YGNR", "name":"Tantabin", "locale_name":"Tantabin","code":"TTB"},
	{"state_code":"YGNR", "name":"Shwepyaytha", "locale_name":"Shwepyaytha","code":"SPT"},
	{"state_code":"YGNR", "name":"Hlaingthaya", "locale_name":"Hlaingthaya","code":"HTA"},
	{"state_code":"YGNR", "name":"Dagon Myothit (South)", "locale_name":"Dagon Myothit (South)","code":"SDM"},
	{"state_code":"YGNR", "name":"Dagon Myothit (North)", "locale_name":"Dagon Myothit (North)","code":"NDM"},
	{"state_code":"YGNR", "name":"Thanlyin", "locale_name":"Thanlyin","code":"TYN"},
	{"state_code":"YGNR", "name":"Kyauktan", "locale_name":"Kyauktan","code":"KTN"},
	{"state_code":"YGNR", "name":"Thonegwa", "locale_name":"Thonegwa","code":"TGA"},
	{"state_code":"YGNR", "name":"Kha Yan", "locale_name":"Kha Yan","code":"KAN"},
	{"state_code":"YGNR", "name":"Twante", "locale_name":"Twante","code":"TTE"},
	{"state_code":"YGNR", "name":"Kawthmu", "locale_name":"Kawthmu","code":"KMU"},
	{"state_code":"YGNR", "name":"Kungyangon", "locale_name":"Kungyangon","code":"KGN"},
	{"state_code":"YGNR", "name":"Coco Island", "locale_name":"Coco Island","code":"CLD"},
	{"state_code":"YGNR", "name":"Yangon", "locale_name":"Yangon","code":"YGN"},
	
	{"state_code":"NPDT", "name":"Naypyitaw", "locale_name":"Naypyitaw","code":"NPD"}
		
]
