[{"country_iso":"MM", "name":"Ayeyarwady", "locale_name":"Ayeyarwady","code":"AYAR"},
	{"country_iso":"MM", "name":"Bago Region", "locale_name":"Bago Region","code":"BGOR"},
	{"country_iso":"MM", "name":"Chin State", "locale_name":"Chin State","code":"CHNS"},
	{"country_iso":"MM", "name":"Kachin State", "locale_name":"Kachin State","code":"KCHS"},
	{"country_iso":"MM", "name":"Kayah State", "locale_name":"Kayah State","code":"KYHS"},
	{"country_iso":"MM", "name":"Kayin State", "locale_name":"Kayin State","code":"KYNS"},
	{"country_iso":"MM", "name":"Magway Region", "locale_name":"Magway Region","code":"MGWY"},
	{"country_iso":"MM", "name":"Manadalay Region", "locale_name":"Manadalay Region","code":"MDYR"},
	{"country_iso":"MM", "name":"Mon State", "locale_name":"Mon","code":"MONS"},
	{"country_iso":"MM", "name":"Rakhine State", "locale_name":"Rakhine","code":"RKHR"},
	{"country_iso":"MM", "name":"Shan State", "locale_name":"Shan","code":"SHNR"},
	{"country_iso":"MM", "name":"Sagaing Region", "locale_name":"Sagaing","code":"SGGR"},
	{"country_iso":"MM", "name":"Tanintharyi Region", "locale_name":"Tanintharyi Region","code":"TNTR"},
	{"country_iso":"MM", "name":"Yangon Region", "locale_name":"Yangon Region","code":"YGNR"},
	{"country_iso":"MM", "name":"Naypyitaw Union Territory", "locale_name":"Naypyitaw Union Territory","code":"NPDT"}]
